(module USB_A (layer F.Cu) (tedit 5EB3C965)
  (descr "USB A connector")
  (tags "USB USB_A")
  (fp_text reference REF** (at 6.858 -1.016) (layer F.SilkS)
    (effects (font (size 1 1) (thickness 0.15)))
  )
  (fp_text value USB_A (at 0 16.51) (layer F.Fab)
    (effects (font (size 1 1) (thickness 0.15)))
  )
  (fp_line (start -5.842 0) (end 5.842 0) (layer F.SilkS) (width 0.15))
  (fp_line (start 5.842 0) (end 5.842 17.526) (layer F.SilkS) (width 0.15))
  (fp_line (start 5.842 17.526) (end -5.842 17.526) (layer F.SilkS) (width 0.15))
  (fp_line (start -5.842 17.526) (end -5.842 0) (layer F.SilkS) (width 0.15))
  (fp_line (start -6.35 4.064) (end 6.35 4.064) (layer F.SilkS) (width 0.15))
  (pad "" np_thru_hole circle (at -5.842 1.143) (size 2 2) (drill oval 0.9 2) (layers *.Cu *.Mask))
  (pad "" np_thru_hole circle (at 5.842 1.143) (size 2 2) (drill oval 0.9 2) (layers *.Cu *.Mask))
  (pad 3 smd rect (at -1.016 -0.762) (size 1.1 2.5) (layers F.Cu F.Paste F.Mask))
  (pad 2 smd rect (at 1.016 -0.762) (size 1.1 2.5) (layers F.Cu F.Paste F.Mask))
  (pad 1 smd rect (at 3.51 -0.762) (size 1.1 2.5) (layers F.Cu F.Paste F.Mask))
  (pad 4 smd rect (at -3.51 -0.762) (size 1.1 2.5) (layers F.Cu F.Paste F.Mask))
  (pad "" np_thru_hole circle (at -2.3 1.143) (size 1 1) (drill 1) (layers *.Cu *.Mask))
  (pad "" np_thru_hole circle (at 2.3 1.143) (size 1 1) (drill 1) (layers *.Cu *.Mask))
  (model ${KISYS3DMOD}/Connectors.3dshapes/USB_A.wrl
    (offset (xyz 3.555999946594238 0 0))
    (scale (xyz 1 1 1))
    (rotate (xyz 0 0 90))
  )
)
